<?xml version="1.0" encoding="UTF-8"?>
<svg width="148px" height="353px" viewBox="0 0 148 353" version="1.1" xmlns="http://www.w3.org/2000/svg" xmlns:xlink="http://www.w3.org/1999/xlink">
    <!-- Generator: Sketch 51.1 (57501) - http://www.bohemiancoding.com/sketch -->
    <title>1</title>
    <desc>Created with Sketch.</desc>
    <defs></defs>
    <g id="Page-1" stroke="none" stroke-width="1" fill="none" fill-rule="evenodd">
        <g id="Desktop" transform="translate(-349.000000, -2401.000000)" fill="#F2F2F5">
            <g id="04-//-how_it_works" transform="translate(0.000000, 2100.000000)">
                <polygon id="1" points="442.819336 654 442.819336 355.904297 441.598633 355.904297 349.557617 421.333984 349.557617 367.623047 442.331055 301.705078 496.286133 301.705078 496.286133 654"></polygon>
            </g>
        </g>
    </g>
</svg>