<?xml version="1.0" encoding="UTF-8"?>
<svg width="24px" height="24px" viewBox="0 0 24 24" version="1.1" xmlns="http://www.w3.org/2000/svg" xmlns:xlink="http://www.w3.org/1999/xlink">
    <!-- Generator: Sketch 52.2 (67145) - http://www.bohemiancoding.com/sketch -->
    <title>logo_sm</title>
    <desc>Created with Sketch.</desc>
    <defs>
        <path d="M10.70262,0 L11.31049,0 L11.31049,3.14664 C11.31049,3.50884 11.60411,3.80246 11.96632,3.80246 L11.98059,3.80246 C13.50811,3.83789 14.27188,4.49814 14.27188,5.78323 C14.27188,7.06832 13.50811,7.75052 11.98059,7.82983 L11.91868,7.82983 C11.58278,7.82983 11.31049,8.10212 11.31049,8.43802 L11.31049,8.51099 L11.31049,11.34064 L9.349415,11.34064 C8.897295,9.32602 7.783687,8.31871 6.008589,8.31871 C4.233492,8.31871 3.080348,9.32602 2.549159,11.34064 L0,11.34064 L0,10.70262 C0,7.69262 0.4177153,6.07086 1.202097,4.60419 C1.986479,3.13753 3.137528,1.98648 4.604194,1.2021 C6.070861,0.41772 7.692622,0 10.70262,0 Z" id="path-1"></path>
        <linearGradient x1="20.59997%" y1="23.4294721%" x2="20.59997%" y2="4821.78536%" id="linearGradient-3">
            <stop stop-color="#FFFFFF" offset="0%"></stop>
            <stop stop-color="#6A8FC9" offset="100%"></stop>
        </linearGradient>
        <linearGradient x1="49.9999918%" y1="49.9110828%" x2="49.9999918%" y2="76.5705138%" id="linearGradient-4">
            <stop stop-color="#FFFFFF" offset="0%"></stop>
            <stop stop-color="#6A8FC9" offset="100%"></stop>
        </linearGradient>
        <path d="M0.63158,0 L1.2506,0 C4.26059,0 5.88236,0.41772 7.34902,1.2021 C8.81569,1.98648 9.96674,3.13753 10.75112,4.60419 C11.5355,6.07086 11.95322,7.69262 11.95322,10.70262 L11.95322,11.31049 L8.82558,11.31049 C8.46338,11.31049 8.16976,11.60411 8.16976,11.96632 L8.16976,11.98059 C8.13434,13.50811 7.47408,14.271877 6.18899,14.271877 C4.90391,14.271877 4.22171,13.50811 4.14239,11.98059 L4.14239,11.91868 C4.14239,11.58278 3.8701,11.31049 3.53421,11.31049 L3.46124,11.31049 L0.63158,11.31049 L0.63158,9.34942 C2.6462,8.8973 3.65351,7.78369 3.65351,6.00859 C3.65351,4.23349 2.6462,3.08035 0.63158,2.54916 L0.63158,0 Z" id="path-5"></path>
        <linearGradient x1="76.5705257%" y1="20.5999726%" x2="-4721.78581%" y2="20.5999726%" id="linearGradient-7">
            <stop stop-color="#FFFFFF" offset="0%"></stop>
            <stop stop-color="#6A8FC9" offset="100%"></stop>
        </linearGradient>
        <linearGradient x1="50.0889125%" y1="49.9999979%" x2="23.429479%" y2="49.9999979%" id="linearGradient-8">
            <stop stop-color="#FFFFFF" offset="0%"></stop>
            <stop stop-color="#6A8FC9" offset="100%"></stop>
        </linearGradient>
        <path d="M14.95322,0.63158 L14.95322,1.2506 C14.95322,4.260594 14.5355,5.882355 13.75112,7.349022 C12.96674,8.815689 11.81569,9.966737 10.34902,10.751119 C8.88236,11.5355011 7.26059,11.9532164 4.2506,11.9532164 L3.6456,11.9532164 L3.6456,8.825584 C3.6456,8.463381 3.35197,8.169758 2.98977,8.169758 L2.9755,8.169758 C1.44797,8.134336 0.684211,7.474081 0.684211,6.188994 C0.684211,4.903906 1.44797,4.221706 2.9755,4.142393 L3.03741,4.142393 C3.3733,4.142393 3.6456,3.870099 3.6456,3.534206 L3.6456,3.461236 L3.6456,0.63158 L5.60667,0.63158 C6.05879,2.646199 7.1724,3.653509 8.9475,3.653509 C10.7226,3.653509 11.87574,2.646199 12.40693,0.63158 L14.95322,0.63158 Z" id="path-9"></path>
        <linearGradient x1="79.4000291%" y1="76.5705278%" x2="79.4000291%" y2="-4721.78559%" id="linearGradient-11">
            <stop stop-color="#FFFFFF" offset="0%"></stop>
            <stop stop-color="#6A8FC9" offset="100%"></stop>
        </linearGradient>
        <linearGradient x1="50.0000062%" y1="50.0889159%" x2="50.0000062%" y2="23.4294836%" id="linearGradient-12">
            <stop stop-color="#FFFFFF" offset="0%"></stop>
            <stop stop-color="#6A8FC9" offset="100%"></stop>
        </linearGradient>
        <path d="M0,4.2506 L0,3.6456 L3.146638,3.6456 C3.508841,3.6456 3.802464,3.35197 3.802464,2.98977 L3.802464,2.9755 C3.837886,1.44797 4.498141,0.68421 5.783228,0.68421 C7.068316,0.68421 7.750516,1.44797 7.829829,2.9755 L7.829829,3.03741 C7.829829,3.3733 8.102124,3.6456 8.438016,3.6456 L8.510986,3.6456 L11.34064,3.6456 L11.34064,5.606672 C9.326023,6.058792 8.318713,7.172401 8.318713,8.947498 C8.318713,10.722595 9.326023,11.875739 11.34064,12.406928 L11.34064,14.9532164 L10.70262,14.9532164 C7.692622,14.9532164 6.070861,14.5355011 4.604194,13.751119 C3.137528,12.966737 1.986479,11.815689 1.202097,10.349022 C0.4177153,8.882355 0,7.260594 0,4.2506 Z" id="path-13"></path>
        <linearGradient x1="23.4294754%" y1="79.4000281%" x2="4821.78604%" y2="79.4000281%" id="linearGradient-15">
            <stop stop-color="#FFFFFF" offset="0%"></stop>
            <stop stop-color="#6A8FC9" offset="100%"></stop>
        </linearGradient>
        <linearGradient x1="49.9110898%" y1="50.0000027%" x2="76.5705246%" y2="50.0000027%" id="linearGradient-16">
            <stop stop-color="#FFFFFF" offset="0%"></stop>
            <stop stop-color="#6A8FC9" offset="100%"></stop>
        </linearGradient>
    </defs>
    <g id="logo_sm" stroke="none" stroke-width="1" fill="none" fill-rule="evenodd">
        <g id="Group-5">
            <mask id="mask-2" fill="white">
                <use xlink:href="#path-1"></use>
            </mask>
            <g id="Clip-2"></g>
            <polygon id="Fill-1" fill="#FFFFFF" mask="url(#mask-2)" points="-5 -5 19.27188 -5 19.27188 16.340643 -5 16.340643"></polygon>
            <polygon id="Fill-3" fill="url(#linearGradient-3)" mask="url(#mask-2)" points="-5 -5 19.27188 -5 19.27188 16.340643 -5 16.340643"></polygon>
            <polygon id="Fill-4" fill="url(#linearGradient-4)" mask="url(#mask-2)" points="-5 -5 19.27188 -5 19.27188 16.340643 -5 16.340643"></polygon>
        </g>
        <g id="Group-10" transform="translate(12.000000, 0.000000)">
            <mask id="mask-6" fill="white">
                <use xlink:href="#path-5"></use>
            </mask>
            <g id="Clip-7"></g>
            <polygon id="Fill-6" fill="#FFFFFF" mask="url(#mask-6)" points="16.97222 -5 16.97222 19.271877 -4.368421 19.271877 -4.368421 -5"></polygon>
            <polygon id="Fill-8" fill="url(#linearGradient-7)" mask="url(#mask-6)" points="16.97222 -5 16.97222 19.271877 -4.368421 19.271877 -4.368421 -5"></polygon>
            <polygon id="Fill-9" fill="url(#linearGradient-8)" mask="url(#mask-6)" points="16.97222 -5 16.97222 19.271877 -4.368421 19.271877 -4.368421 -5"></polygon>
        </g>
        <g id="Group-15" transform="translate(9.000000, 12.000000)">
            <mask id="mask-10" fill="white">
                <use xlink:href="#path-9"></use>
            </mask>
            <g id="Clip-12"></g>
            <polygon id="Fill-11" fill="#FFFFFF" mask="url(#mask-10)" points="19.95609 16.972222 -4.315789 16.972222 -4.315789 -4.36842 19.95609 -4.36842"></polygon>
            <polygon id="Fill-13" fill="url(#linearGradient-11)" mask="url(#mask-10)" points="19.95609 16.972222 -4.315789 16.972222 -4.315789 -4.36842 19.95609 -4.36842"></polygon>
            <polygon id="Fill-14" fill="url(#linearGradient-12)" mask="url(#mask-10)" points="19.95609 16.972222 -4.315789 16.972222 -4.315789 -4.36842 19.95609 -4.36842"></polygon>
        </g>
        <g id="Group-20" transform="translate(0.000000, 9.000000)">
            <mask id="mask-14" fill="white">
                <use xlink:href="#path-13"></use>
            </mask>
            <g id="Clip-17"></g>
            <polygon id="Fill-16" fill="#FFFFFF" mask="url(#mask-14)" points="-5 19.956087 -5 -4.31579 16.34064 -4.31579 16.34064 19.956087"></polygon>
            <polygon id="Fill-18" fill="url(#linearGradient-15)" mask="url(#mask-14)" points="-5 19.956087 -5 -4.31579 16.34064 -4.31579 16.34064 19.956087"></polygon>
            <polygon id="Fill-19" fill="url(#linearGradient-16)" mask="url(#mask-14)" points="-5 19.956087 -5 -4.31579 16.34064 -4.31579 16.34064 19.956087"></polygon>
        </g>
    </g>
</svg>