<?xml version="1.0" encoding="UTF-8"?>
<svg width="150px" height="60px" viewBox="0 0 150 60" version="1.1" xmlns="http://www.w3.org/2000/svg" xmlns:xlink="http://www.w3.org/1999/xlink">
    <!-- Generator: Sketch 51.1 (57501) - http://www.bohemiancoding.com/sketch -->
    <title>IBM_logo</title>
    <desc>Created with Sketch.</desc>
    <defs></defs>
    <g id="Page-1" stroke="none" stroke-width="1" fill="none" fill-rule="evenodd">
        <g id="Desktop" transform="translate(-316.000000, -1570.000000)" fill="#C2C2C4" fill-rule="nonzero">
            <g id="03-//-metaprogramms-2" transform="translate(0.000000, 1400.000000)">
                <g id="logoboard" transform="translate(260.000000, 125.000000)">
                    <g id="IBM_logo" transform="translate(56.000000, 45.000000)">
                        <path d="M0.390697674,0.320869565 L0.390697674,4.3926087 L29.4357558,4.3926087 L29.4357558,0.320869565 L0.390697674,0.320869565 Z M33.5511628,0.320869565 L33.5511628,4.3926087 L74.9415698,4.3926087 C74.9415698,4.3926087 70.7140988,0.320869565 65.1143895,0.320869565 L33.5511628,0.320869565 Z M83.0616279,0.320869565 L83.0616279,4.3926087 L108.102471,4.3926087 L106.615552,0.320869565 L83.0616279,0.320869565 Z M126.055378,0.320869565 L124.568023,4.3926087 L149.381686,4.3926087 L149.381686,0.320869565 L126.055378,0.320869565 Z M0.390697674,8.23956522 L0.390697674,12.3108696 L29.4357558,12.3108696 L29.4357558,8.23956522 L0.390697674,8.23956522 Z M33.5511628,8.24478261 L33.5511628,12.3108696 L79.7450581,12.3108696 C79.7450581,12.3108696 79.2056686,9.17695652 78.2642442,8.24478261 L33.5511628,8.24478261 Z M83.0616279,8.24478261 L83.0616279,12.3108696 L110.847384,12.3108696 L109.472093,8.24478261 L83.0616279,8.24478261 Z M123.082849,8.24478261 L121.707122,12.3108696 L149.382994,12.3108696 L149.382994,8.24478261 L123.082849,8.24478261 Z M8.73793605,16.1578261 L8.73793605,20.2356522 L21.3165698,20.2356522 L21.3165698,16.1578261 L8.73793605,16.1578261 Z M41.8979651,16.1578261 L41.8979651,20.2356522 L54.4765988,20.2356522 L54.4765988,16.1578261 L41.8979651,16.1578261 Z M66.7116279,16.1578261 L66.7116279,20.2356522 L79.2902616,20.2356522 C79.2902616,20.2356522 80.0890988,18.0817391 80.0890988,16.1578261 L66.7116279,16.1578261 Z M91.4084302,16.1578261 L91.4084302,20.2356522 L113.709593,20.2356522 L112.223547,16.1578261 L91.4084302,16.1578261 Z M120.342297,16.1578261 L118.850145,20.2356522 L141.262064,20.2356522 L141.262064,16.1578261 L120.342297,16.1578261 Z M8.73793605,24.0826087 L8.73793605,28.1547826 L21.3165698,28.1547826 L21.3165698,24.0826087 L8.73793605,24.0826087 Z M41.8979651,24.0826087 L41.8979651,28.1547826 L74.0271802,28.1547826 C74.0271802,28.1547826 76.7140988,26.0647826 77.5713663,24.0826087 L41.8979651,24.0826087 Z M91.4084302,24.0826087 L91.4084302,28.1547826 L103.9875,28.1547826 L103.9875,25.8873913 L104.785901,28.1547826 L127.827471,28.1547826 L128.684302,25.8873913 L128.684302,28.1547826 L141.263372,28.1547826 L141.263372,24.0826087 L117.651017,24.0826087 L116.39782,27.5321739 L115.138517,24.0826087 L91.4084302,24.0826087 Z M8.73793605,32.0008696 L8.73793605,36.073913 L21.3165698,36.073913 L21.3165698,32.0008696 L8.73793605,32.0008696 Z M41.8979651,32.0008696 L41.8979651,36.073913 L77.5713663,36.073913 C76.7136628,34.0973913 74.0271802,32.0008696 74.0271802,32.0008696 L41.8979651,32.0008696 Z M91.4084302,32.0008696 L91.4084302,36.073913 L103.9875,36.073913 L103.9875,32.0008696 L91.4084302,32.0008696 Z M106.272384,32.0008696 L107.793314,36.073913 L125.069041,36.073913 L126.514971,32.0008696 L106.272384,32.0008696 Z M128.683866,32.0008696 L128.683866,36.073913 L141.262936,36.073913 L141.262936,32.0008696 L128.683866,32.0008696 Z M8.73793605,39.9204348 L8.73793605,43.9926087 L21.3165698,43.9926087 L21.3165698,39.9204348 L8.73793605,39.9204348 Z M41.8979651,39.9204348 L41.8979651,43.9926087 L54.4765988,43.9926087 L54.4765988,39.9204348 L41.8979651,39.9204348 Z M66.7116279,39.9204348 L66.7116279,43.9926087 L80.0886628,43.9926087 C80.0886628,42.0708696 79.2902616,39.9204348 79.2902616,39.9204348 L66.7116279,39.9204348 Z M91.4084302,39.9204348 L91.4084302,43.9926087 L103.9875,43.9926087 L103.9875,39.9204348 L91.4084302,39.9204348 Z M109.127616,39.9204348 L110.602762,43.9926087 L122.185465,43.9926087 L123.671512,39.9204348 L109.127616,39.9204348 Z M128.683866,39.9204348 L128.683866,43.9926087 L141.262936,43.9926087 L141.262936,39.9204348 L128.683866,39.9204348 Z M0.617877907,47.8391304 L0.617877907,51.916087 L29.6633721,51.916087 L29.6633721,47.8391304 L0.617877907,47.8391304 Z M33.5511628,47.8391304 L33.5511628,51.916087 L78.2646802,51.916087 C79.2056686,50.9830435 79.7454942,47.8391304 79.7454942,47.8391304 L33.5511628,47.8391304 Z M83.2892442,47.8391304 L83.2892442,51.916087 L103.9875,51.916087 L103.9875,47.8391304 L83.2892442,47.8391304 Z M111.990262,47.8391304 L113.505959,51.916087 L119.399128,51.916087 L120.821948,47.8391304 L111.990262,47.8391304 Z M128.683866,47.8391304 L128.683866,51.916087 L149.608866,51.916087 L149.608866,47.8391304 L128.683866,47.8391304 Z M0.617877907,55.7630435 L0.617877907,59.8352174 L29.6633721,59.8352174 L29.6633721,55.7630435 L0.617877907,55.7630435 Z M33.5511628,55.7630435 L33.5511628,59.8286957 L65.1143895,59.8286957 C70.7140988,59.8286957 74.9415698,55.7630435 74.9415698,55.7630435 L33.5511628,55.7630435 Z M83.2892442,55.7630435 L83.2892442,59.8352174 L103.9875,59.8352174 L103.9875,55.7630435 L83.2892442,55.7630435 Z M114.863808,55.7630435 L116.321512,59.8226087 L116.571802,59.8286957 L118.052616,55.7630435 L114.863808,55.7630435 Z M128.683866,55.7630435 L128.683866,59.8352174 L149.608866,59.8352174 L149.608866,55.7630435 L128.683866,55.7630435 Z" id="IBM_1_"></path>
                    </g>
                </g>
            </g>
        </g>
    </g>
</svg>