<?xml version="1.0" encoding="UTF-8"?>
<svg width="199px" height="33px" viewBox="0 0 199 33" version="1.1" xmlns="http://www.w3.org/2000/svg" xmlns:xlink="http://www.w3.org/1999/xlink">
    <!-- Generator: Sketch 51.1 (57501) - http://www.bohemiancoding.com/sketch -->
    <title>Toyota_carlogo</title>
    <desc>Created with Sketch.</desc>
    <defs></defs>
    <g id="Page-1" stroke="none" stroke-width="1" fill="none" fill-rule="evenodd">
        <g id="Desktop" transform="translate(-591.000000, -1734.000000)" fill="#C2C2C4" fill-rule="nonzero">
            <g id="03-//-metaprogramms-2" transform="translate(0.000000, 1400.000000)">
                <g id="logoboard" transform="translate(260.000000, 125.000000)">
                    <g id="Toyota_carlogo" transform="translate(331.000000, 209.000000)">
                        <path d="M23.5417,31.2918663 C20.9075684,29.629875 18.9678421,23.8936308 18.9678421,17.078939 C18.9678421,16.8288488 18.9688895,16.5819244 18.9751737,16.3360552 L18.9783158,16.3392209 C11.6530211,15.1795203 6.35962105,12.0011599 6.22451053,8.24347674 L6.20251579,8.28674128 C4.40942105,10.5312209 3.38614211,13.1260378 3.38614211,15.8907471 C3.38614211,24.0265901 12.2500211,30.6924942 23.4935211,31.2823692 L23.5417,31.2918663 Z M0,16.484843 C0,7.38135174 11.2445474,0 25.1158947,0 C38.9872421,0 50.2317895,7.38135174 50.2317895,16.484843 C50.2317895,25.5883343 38.9872421,32.969686 25.1158947,32.969686 C11.2445474,32.969686 0,25.5883343 0,16.484843 Z M25.1158947,2.37849419 C27.7940158,2.37849419 30.0709947,6.47068605 30.9151737,12.1816047 L30.9183158,12.1731628 C36.1279263,11.3564128 39.7759105,9.47071221 39.7759105,7.27793895 C39.7759105,4.33384012 33.2120526,1.951125 25.1158947,1.951125 C17.0197368,1.951125 10.4558789,4.33489535 10.4558789,7.27793895 C10.4558789,9.47071221 14.1028158,11.3553576 19.3134737,12.1731628 L19.3166158,12.1816047 C20.1607947,6.47174128 22.4388211,2.37849419 25.1158947,2.37849419 Z M26.7372211,31.2823692 C37.9807211,30.6924942 46.8456474,24.0265901 46.8456474,15.8907471 C46.8456474,13.1260378 45.8213211,10.5312209 44.0292737,8.28674128 L44.0072789,8.24347674 C43.8721684,12.0011599 38.5798158,15.1795203 31.2534737,16.3392209 L31.2566158,16.3360552 C31.2618526,16.5819244 31.2639474,16.8288488 31.2639474,17.078939 C31.2639474,23.8936308 29.3221263,29.629875 26.6900895,31.2918663 L26.7372211,31.2823692 Z M25.1158947,12.6058081 C26.3161789,12.6058081 27.4819,12.5541017 28.5973474,12.4549099 L28.5963,12.4559651 C28.0411947,8.79536337 26.6921842,6.21215407 25.1158947,6.21215407 C23.5396053,6.21215407 22.1916421,8.79536337 21.6354895,12.4559651 L21.6344421,12.4549099 C22.7498895,12.5541017 23.9156105,12.6058081 25.1158947,12.6058081 Z M25.1158947,26.1613256 C27.1320789,26.1613256 28.7764474,21.934064 28.8644263,16.6325756 L28.8749,16.6357413 C27.6599526,16.7486512 26.4031105,16.8087994 25.1158947,16.8087994 C23.8286789,16.8087994 22.5718368,16.7497064 21.3568895,16.6357413 L21.3684105,16.6325756 C21.4553421,21.9351192 23.0997105,26.1613256 25.1158947,26.1613256 Z" id="Shape"></path>
                        <path d="M128.158095,16.484843 C128.158095,9.52663953 133.757326,3.88642151 140.662626,3.88642151 C147.571068,3.88642151 153.169253,9.52769477 153.169253,16.484843 C153.169253,23.4441017 147.570021,29.0832645 140.662626,29.0832645 C133.757326,29.0832645 128.158095,23.4430465 128.158095,16.484843 Z M140.662626,24.4634564 C144.520084,24.4634564 147.646479,20.890439 147.646479,16.4837878 C147.646479,12.0781919 144.520084,8.50411919 140.662626,8.50411919 C136.807263,8.50411919 133.681916,12.0771366 133.681916,16.4837878 C133.681916,20.890439 136.808311,24.4634564 140.662626,24.4634564 Z" id="Shape"></path>
                        <polygon id="Shape" points="167.359 9.13514826 167.359 28.5113285 162.090737 28.5113285 162.090737 9.13514826 162.108542 9.13514826 154.740305 9.13514826 154.740305 4.75382267 174.709432 4.75382267 174.709432 9.13409302 167.377853 9.13409302 167.359 9.13409302"></polygon>
                        <path d="M181.082668,23.1665756 L181.077432,23.1718517 L179.056011,28.5123837 L172.902721,28.5123837 L182.630679,4.75487791 L185.911037,4.75487791 L189.188253,4.75487791 L198.917258,28.5123837 L192.762921,28.5123837 L190.7415,23.1718517 L190.736263,23.1665756 L185.911037,23.1665756 L181.082668,23.1665756 Z M185.911037,19.1566919 L189.225958,19.1566919 L189.223863,19.1577471 L185.933032,10.4626308 L185.886947,10.4626308 L182.594021,19.1577471 L182.592974,19.1566919 L185.911037,19.1566919 Z" id="Shape"></path>
                        <polygon id="Shape" points="70.2333842 9.13514826 70.2333842 28.5113285 64.9640737 28.5113285 64.9640737 9.13514826 64.9818789 9.13514826 57.6125947 9.13514826 57.6125947 4.75382267 77.5827684 4.75382267 77.5827684 9.13409302 70.2511895 9.13409302 70.2333842 9.13409302"></polygon>
                        <path d="M78.9317789,16.484843 C78.9317789,9.52663953 84.5310105,3.88642151 91.4384053,3.88642151 C98.3447526,3.88642151 103.943984,9.52769477 103.943984,16.484843 C103.943984,23.4441017 98.3447526,29.0832645 91.4384053,29.0832645 C84.5310105,29.0832645 78.9317789,23.4430465 78.9317789,16.484843 Z M91.4384053,24.4634564 C95.2937684,24.4634564 98.4212105,20.890439 98.4212105,16.4837878 C98.4212105,12.0781919 95.2948158,8.50411919 91.4384053,8.50411919 C87.5819947,8.50411919 84.4556,12.0771366 84.4556,16.4837878 C84.4556,20.890439 87.5819947,24.4634564 91.4384053,24.4634564 Z" id="Shape"></path>
                        <polygon id="Shape" points="116.050516 28.5113285 118.722353 28.5113285 118.722353 19.602 118.722353 19.4901453 127.914058 4.75382267 121.761816 4.75382267 116.050516 14.7394884 110.340263 4.75382267 104.185926 4.75382267 113.378679 19.4901453 113.378679 19.6009448 113.378679 28.5102733 116.050516 28.5102733"></polygon>
                    </g>
                </g>
            </g>
        </g>
    </g>
</svg>