// Jest Snapshot v1, https://goo.gl/fbAQLP

exports[`<Progress /> should render Progress 1`] = `
ShallowWrapper {
  Symbol(enzyme.__root__): [Circular],
  Symbol(enzyme.__unrendered__): <Progress
    after={30}
    before={20}
    onAfterChange={[MockFunction]}
    onBeforeChange={[MockFunction]}
    patternId={1}
    programId={1}
  />,
  Symbol(enzyme.__renderer__): Object {
    "batchedUpdates": [Function],
    "getNode": [Function],
    "render": [Function],
    "simulateError": [Function],
    "simulateEvent": [Function],
    "unmount": [Function],
  },
  Symbol(enzyme.__node__): Object {
    "instance": null,
    "key": undefined,
    "nodeType": "host",
    "props": Object {
      "children": <styled.div
        color="#FFAB00"
        progressAfter={30}
        progressBefore={20}
      >
        <styled.div
          width={20}
        >
          <styled.div
            onMouseDown={[Function]}
          />
          20
          %
        </styled.div>
        <styled.div
          width={30}
        >
          <styled.div
            onMouseDown={[Function]}
          />
          70
          %
        </styled.div>
      </styled.div>,
    },
    "ref": [Function],
    "rendered": Object {
      "instance": null,
      "key": undefined,
      "nodeType": "class",
      "props": Object {
        "children": Array [
          <styled.div
            width={20}
          >
            <styled.div
              onMouseDown={[Function]}
            />
            20
            %
          </styled.div>,
          <styled.div
            width={30}
          >
            <styled.div
              onMouseDown={[Function]}
            />
            70
            %
          </styled.div>,
        ],
        "color": "#FFAB00",
        "progressAfter": 30,
        "progressBefore": 20,
      },
      "ref": null,
      "rendered": Array [
        Object {
          "instance": null,
          "key": undefined,
          "nodeType": "class",
          "props": Object {
            "children": Array [
              <styled.div
                onMouseDown={[Function]}
              />,
              20,
              "%",
            ],
            "width": 20,
          },
          "ref": null,
          "rendered": Array [
            Object {
              "instance": null,
              "key": undefined,
              "nodeType": "class",
              "props": Object {
                "onMouseDown": [Function],
              },
              "ref": null,
              "rendered": null,
              "type": [Function],
            },
            20,
            "%",
          ],
          "type": [Function],
        },
        Object {
          "instance": null,
          "key": undefined,
          "nodeType": "class",
          "props": Object {
            "children": Array [
              <styled.div
                onMouseDown={[Function]}
              />,
              70,
              "%",
            ],
            "width": 30,
          },
          "ref": null,
          "rendered": Array [
            Object {
              "instance": null,
              "key": undefined,
              "nodeType": "class",
              "props": Object {
                "onMouseDown": [Function],
              },
              "ref": null,
              "rendered": null,
              "type": [Function],
            },
            70,
            "%",
          ],
          "type": [Function],
        },
      ],
      "type": [Function],
    },
    "type": "div",
  },
  Symbol(enzyme.__nodes__): Array [
    Object {
      "instance": null,
      "key": undefined,
      "nodeType": "host",
      "props": Object {
        "children": <styled.div
          color="#FFAB00"
          progressAfter={30}
          progressBefore={20}
        >
          <styled.div
            width={20}
          >
            <styled.div
              onMouseDown={[Function]}
            />
            20
            %
          </styled.div>
          <styled.div
            width={30}
          >
            <styled.div
              onMouseDown={[Function]}
            />
            70
            %
          </styled.div>
        </styled.div>,
      },
      "ref": [Function],
      "rendered": Object {
        "instance": null,
        "key": undefined,
        "nodeType": "class",
        "props": Object {
          "children": Array [
            <styled.div
              width={20}
            >
              <styled.div
                onMouseDown={[Function]}
              />
              20
              %
            </styled.div>,
            <styled.div
              width={30}
            >
              <styled.div
                onMouseDown={[Function]}
              />
              70
              %
            </styled.div>,
          ],
          "color": "#FFAB00",
          "progressAfter": 30,
          "progressBefore": 20,
        },
        "ref": null,
        "rendered": Array [
          Object {
            "instance": null,
            "key": undefined,
            "nodeType": "class",
            "props": Object {
              "children": Array [
                <styled.div
                  onMouseDown={[Function]}
                />,
                20,
                "%",
              ],
              "width": 20,
            },
            "ref": null,
            "rendered": Array [
              Object {
                "instance": null,
                "key": undefined,
                "nodeType": "class",
                "props": Object {
                  "onMouseDown": [Function],
                },
                "ref": null,
                "rendered": null,
                "type": [Function],
              },
              20,
              "%",
            ],
            "type": [Function],
          },
          Object {
            "instance": null,
            "key": undefined,
            "nodeType": "class",
            "props": Object {
              "children": Array [
                <styled.div
                  onMouseDown={[Function]}
                />,
                70,
                "%",
              ],
              "width": 30,
            },
            "ref": null,
            "rendered": Array [
              Object {
                "instance": null,
                "key": undefined,
                "nodeType": "class",
                "props": Object {
                  "onMouseDown": [Function],
                },
                "ref": null,
                "rendered": null,
                "type": [Function],
              },
              70,
              "%",
            ],
            "type": [Function],
          },
        ],
        "type": [Function],
      },
      "type": "div",
    },
  ],
  Symbol(enzyme.__options__): Object {
    "adapter": ReactSixteenAdapter {
      "options": Object {
        "enableComponentDidUpdateOnSetState": true,
        "lifecycles": Object {
          "componentDidUpdate": Object {
            "onSetState": true,
          },
          "getDerivedStateFromProps": true,
          "getSnapshotBeforeUpdate": true,
          "setState": Object {
            "skipsComponentDidUpdateOnNullish": true,
          },
        },
      },
    },
  },
}
`;

exports[`<Progress /> should throw an error if render Progress without props 1`] = `
ShallowWrapper {
  Symbol(enzyme.__root__): [Circular],
  Symbol(enzyme.__unrendered__): <Progress />,
  Symbol(enzyme.__renderer__): Object {
    "batchedUpdates": [Function],
    "getNode": [Function],
    "render": [Function],
    "simulateError": [Function],
    "simulateEvent": [Function],
    "unmount": [Function],
  },
  Symbol(enzyme.__node__): Object {
    "instance": null,
    "key": undefined,
    "nodeType": "host",
    "props": Object {
      "children": <styled.div
        color="#FFAB00"
      >
        <styled.div>
          <styled.div
            onMouseDown={[Function]}
          />
          NaN
          %
        </styled.div>
        <styled.div>
          <styled.div
            onMouseDown={[Function]}
          />
          NaN
          %
        </styled.div>
      </styled.div>,
    },
    "ref": [Function],
    "rendered": Object {
      "instance": null,
      "key": undefined,
      "nodeType": "class",
      "props": Object {
        "children": Array [
          <styled.div>
            <styled.div
              onMouseDown={[Function]}
            />
            NaN
            %
          </styled.div>,
          <styled.div>
            <styled.div
              onMouseDown={[Function]}
            />
            NaN
            %
          </styled.div>,
        ],
        "color": "#FFAB00",
        "progressAfter": undefined,
        "progressBefore": undefined,
      },
      "ref": null,
      "rendered": Array [
        Object {
          "instance": null,
          "key": undefined,
          "nodeType": "class",
          "props": Object {
            "children": Array [
              <styled.div
                onMouseDown={[Function]}
              />,
              NaN,
              "%",
            ],
            "width": undefined,
          },
          "ref": null,
          "rendered": Array [
            Object {
              "instance": null,
              "key": undefined,
              "nodeType": "class",
              "props": Object {
                "onMouseDown": [Function],
              },
              "ref": null,
              "rendered": null,
              "type": [Function],
            },
            NaN,
            "%",
          ],
          "type": [Function],
        },
        Object {
          "instance": null,
          "key": undefined,
          "nodeType": "class",
          "props": Object {
            "children": Array [
              <styled.div
                onMouseDown={[Function]}
              />,
              NaN,
              "%",
            ],
            "width": undefined,
          },
          "ref": null,
          "rendered": Array [
            Object {
              "instance": null,
              "key": undefined,
              "nodeType": "class",
              "props": Object {
                "onMouseDown": [Function],
              },
              "ref": null,
              "rendered": null,
              "type": [Function],
            },
            NaN,
            "%",
          ],
          "type": [Function],
        },
      ],
      "type": [Function],
    },
    "type": "div",
  },
  Symbol(enzyme.__nodes__): Array [
    Object {
      "instance": null,
      "key": undefined,
      "nodeType": "host",
      "props": Object {
        "children": <styled.div
          color="#FFAB00"
        >
          <styled.div>
            <styled.div
              onMouseDown={[Function]}
            />
            NaN
            %
          </styled.div>
          <styled.div>
            <styled.div
              onMouseDown={[Function]}
            />
            NaN
            %
          </styled.div>
        </styled.div>,
      },
      "ref": [Function],
      "rendered": Object {
        "instance": null,
        "key": undefined,
        "nodeType": "class",
        "props": Object {
          "children": Array [
            <styled.div>
              <styled.div
                onMouseDown={[Function]}
              />
              NaN
              %
            </styled.div>,
            <styled.div>
              <styled.div
                onMouseDown={[Function]}
              />
              NaN
              %
            </styled.div>,
          ],
          "color": "#FFAB00",
          "progressAfter": undefined,
          "progressBefore": undefined,
        },
        "ref": null,
        "rendered": Array [
          Object {
            "instance": null,
            "key": undefined,
            "nodeType": "class",
            "props": Object {
              "children": Array [
                <styled.div
                  onMouseDown={[Function]}
                />,
                NaN,
                "%",
              ],
              "width": undefined,
            },
            "ref": null,
            "rendered": Array [
              Object {
                "instance": null,
                "key": undefined,
                "nodeType": "class",
                "props": Object {
                  "onMouseDown": [Function],
                },
                "ref": null,
                "rendered": null,
                "type": [Function],
              },
              NaN,
              "%",
            ],
            "type": [Function],
          },
          Object {
            "instance": null,
            "key": undefined,
            "nodeType": "class",
            "props": Object {
              "children": Array [
                <styled.div
                  onMouseDown={[Function]}
                />,
                NaN,
                "%",
              ],
              "width": undefined,
            },
            "ref": null,
            "rendered": Array [
              Object {
                "instance": null,
                "key": undefined,
                "nodeType": "class",
                "props": Object {
                  "onMouseDown": [Function],
                },
                "ref": null,
                "rendered": null,
                "type": [Function],
              },
              NaN,
              "%",
            ],
            "type": [Function],
          },
        ],
        "type": [Function],
      },
      "type": "div",
    },
  ],
  Symbol(enzyme.__options__): Object {
    "adapter": ReactSixteenAdapter {
      "options": Object {
        "enableComponentDidUpdateOnSetState": true,
        "lifecycles": Object {
          "componentDidUpdate": Object {
            "onSetState": true,
          },
          "getDerivedStateFromProps": true,
          "getSnapshotBeforeUpdate": true,
          "setState": Object {
            "skipsComponentDidUpdateOnNullish": true,
          },
        },
      },
    },
  },
}
`;
