<?xml version="1.0" encoding="UTF-8"?>
<svg width="14px" height="7px" viewBox="0 0 14 7" version="1.1" xmlns="http://www.w3.org/2000/svg" xmlns:xlink="http://www.w3.org/1999/xlink">
    <title>arrow-left-inactive</title>
    <g id="Page-1" stroke="none" stroke-width="1" fill="none" fill-rule="evenodd">
        <polygon id="arrow-left-inactive" fill="#C0C0C0" fill-rule="nonzero" transform="translate(6.837676, 3.500000) scale(-1, 1) translate(-6.837676, -3.500000) " points="8 -1.41553436e-14 13.6753515 3.5 8 7 8 4 5.63657368e-14 4 9.71692163e-14 3 8 3"></polygon>
    </g>
</svg>