<?xml version="1.0" encoding="UTF-8"?>
<svg width="141px" height="24px" viewBox="0 0 141 24" version="1.1" xmlns="http://www.w3.org/2000/svg" xmlns:xlink="http://www.w3.org/1999/xlink">
    <!-- Generator: Sketch 52.2 (67145) - http://www.bohemiancoding.com/sketch -->
    <title>logo_l_blue</title>
    <desc>Created with Sketch.</desc>
    <defs>
        <polygon id="path-1" points="4.4243 0.4648 4.4243 8.0088 10.8753 8.0088 10.8753 0.4648 15.1943 0.4648 15.1943 19.1248 10.8753 19.1248 10.8753 11.7138 4.4243 11.7138 4.4243 19.1248 0.1063 19.1248 0.1063 0.4648"></polygon>
        <path d="M8.0977,10.4345 C9.8307,10.4345 11.0827,9.0755 11.0827,7.2085 C11.0827,5.3435 9.8307,3.9835 8.0977,3.9835 L5.1387,3.9835 L5.1387,10.4345 L8.0977,10.4345 Z M11.9627,13.2065 L15.2417,19.1245 L10.3367,19.1245 L7.4047,13.9535 L5.1387,13.9535 L5.1387,19.1245 L0.8207,19.1245 L0.8207,0.4645 L8.7647,0.4645 C12.6567,0.4645 15.4547,3.2905 15.4547,7.2085 C15.4547,9.9285 14.0957,12.1405 11.9627,13.2065 Z" id="path-3"></path>
        <polygon id="path-5" points="1.3472 0.4648 1.3472 9.3408 9.5572 9.3408 9.5572 0.4648 10.6782 0.4648 10.6782 19.1248 9.5572 19.1248 9.5572 10.3818 1.3472 10.3818 1.3472 19.1248 0.2542 19.1248 0.2542 0.4648"></polygon>
        <polygon id="path-7" points="8.4604 0.4648 8.4604 1.5048 1.5824 1.5048 1.5824 9.1548 8.4604 9.1548 8.4604 10.1948 1.5824 10.1948 1.5824 18.0858 8.4604 18.0858 8.4604 19.1248 0.4894 19.1248 0.4894 0.4648"></polygon>
        <polygon id="path-9" points="1.9121 0.4648 1.9121 18.0588 8.3371 18.0588 8.3371 19.1248 0.8201 19.1248 0.8201 0.4648"></polygon>
        <path d="M9.1465,6.7295 C9.1465,3.6905 7.3075,1.4775 4.2415,1.4775 L1.3895,1.4775 L1.3895,11.9805 L4.2415,11.9805 C7.3075,11.9805 9.1465,9.7685 9.1465,6.7295 Z M10.2925,6.7295 C10.2925,10.5145 8.0005,12.9935 4.1885,12.9935 L1.3895,12.9935 L1.3895,19.1255 L0.2965,19.1255 L0.2965,0.4645 L4.1885,0.4645 C8.0005,0.4645 10.2925,2.9435 10.2925,6.7295 Z" id="path-11"></path>
        <polygon id="path-13" points="8.7695 0.4648 8.7695 1.5048 1.8915 1.5048 1.8915 9.1548 8.7695 9.1548 8.7695 10.1948 1.8915 10.1948 1.8915 18.0858 8.7695 18.0858 8.7695 19.1248 0.7985 19.1248 0.7985 0.4648"></polygon>
        <path d="M8.9785,6.7295 C8.9785,3.6905 7.1395,1.4775 4.0735,1.4775 L1.2215,1.4775 L1.2215,11.9805 L4.0735,11.9805 C7.1395,11.9805 8.9785,9.7685 8.9785,6.7295 Z M5.9665,12.7535 L10.1245,19.1255 L8.8185,19.1255 L4.8465,12.9405 C4.5805,12.9675 4.3135,12.9935 4.0205,12.9935 L1.2215,12.9935 L1.2215,19.1255 L0.1285,19.1255 L0.1285,0.4645 L4.0205,0.4645 C7.8325,0.4645 10.1245,2.9435 10.1245,6.7295 C10.1245,9.8215 8.6055,12.0345 5.9665,12.7535 Z" id="path-15"></path>
        <path d="M10.70262,0 L11.31049,0 L11.31049,3.14664 C11.31049,3.50884 11.60411,3.80246 11.96632,3.80246 L11.98059,3.80246 C13.50811,3.83789 14.27188,4.49814 14.27188,5.78323 C14.27188,7.06832 13.50811,7.75052 11.98059,7.82983 L11.91868,7.82983 C11.58278,7.82983 11.31049,8.10212 11.31049,8.43802 L11.31049,8.51099 L11.31049,11.34064 L9.349415,11.34064 C8.897295,9.32602 7.783687,8.31871 6.008589,8.31871 C4.233492,8.31871 3.080348,9.32602 2.549159,11.34064 L0,11.34064 L0,10.70262 C0,7.69262 0.4177153,6.07086 1.202097,4.60419 C1.986479,3.13753 3.137528,1.98648 4.604194,1.2021 C6.070861,0.41772 7.692622,0 10.70262,0 Z" id="path-17"></path>
        <linearGradient x1="20.59997%" y1="23.4294721%" x2="20.59997%" y2="4821.78536%" id="linearGradient-19">
            <stop stop-color="#2684FF" offset="0%"></stop>
            <stop stop-color="#0748A7" offset="100%"></stop>
        </linearGradient>
        <linearGradient x1="49.9999918%" y1="49.9110828%" x2="49.9999918%" y2="76.5705138%" id="linearGradient-20">
            <stop stop-color="#2684FF" offset="0%"></stop>
            <stop stop-color="#0748A7" offset="100%"></stop>
        </linearGradient>
        <path d="M0.63158,0 L1.2506,0 C4.26059,0 5.88236,0.41772 7.34902,1.2021 C8.81569,1.98648 9.96674,3.13753 10.75112,4.60419 C11.5355,6.07086 11.95322,7.69262 11.95322,10.70262 L11.95322,11.31049 L8.82558,11.31049 C8.46338,11.31049 8.16976,11.60411 8.16976,11.96632 L8.16976,11.98059 C8.13434,13.50811 7.47408,14.271877 6.18899,14.271877 C4.90391,14.271877 4.22171,13.50811 4.14239,11.98059 L4.14239,11.91868 C4.14239,11.58278 3.8701,11.31049 3.53421,11.31049 L3.46124,11.31049 L0.63158,11.31049 L0.63158,9.34942 C2.6462,8.8973 3.65351,7.78369 3.65351,6.00859 C3.65351,4.23349 2.6462,3.08035 0.63158,2.54916 L0.63158,0 Z" id="path-21"></path>
        <linearGradient x1="76.5705257%" y1="20.5999726%" x2="-4721.78581%" y2="20.5999726%" id="linearGradient-23">
            <stop stop-color="#2684FF" offset="0%"></stop>
            <stop stop-color="#0748A7" offset="100%"></stop>
        </linearGradient>
        <linearGradient x1="50.0889125%" y1="49.9999979%" x2="23.429479%" y2="49.9999979%" id="linearGradient-24">
            <stop stop-color="#2684FF" offset="0%"></stop>
            <stop stop-color="#0748A7" offset="100%"></stop>
        </linearGradient>
        <path d="M14.95322,0.63158 L14.95322,1.2506 C14.95322,4.260594 14.5355,5.882355 13.75112,7.349022 C12.96674,8.815689 11.81569,9.966737 10.34902,10.751119 C8.88236,11.5355011 7.26059,11.9532164 4.2506,11.9532164 L3.6456,11.9532164 L3.6456,8.825584 C3.6456,8.463381 3.35197,8.169758 2.98977,8.169758 L2.9755,8.169758 C1.44797,8.134336 0.684211,7.474081 0.684211,6.188994 C0.684211,4.903906 1.44797,4.221706 2.9755,4.142393 L3.03741,4.142393 C3.3733,4.142393 3.6456,3.870099 3.6456,3.534206 L3.6456,3.461236 L3.6456,0.63158 L5.60667,0.63158 C6.05879,2.646199 7.1724,3.653509 8.9475,3.653509 C10.7226,3.653509 11.87574,2.646199 12.40693,0.63158 L14.95322,0.63158 Z" id="path-25"></path>
        <linearGradient x1="79.4000291%" y1="76.5705278%" x2="79.4000291%" y2="-4721.78559%" id="linearGradient-27">
            <stop stop-color="#2684FF" offset="0%"></stop>
            <stop stop-color="#0748A7" offset="100%"></stop>
        </linearGradient>
        <linearGradient x1="50.0000062%" y1="50.0889159%" x2="50.0000062%" y2="23.4294836%" id="linearGradient-28">
            <stop stop-color="#2684FF" offset="0%"></stop>
            <stop stop-color="#0748A7" offset="100%"></stop>
        </linearGradient>
        <path d="M0,4.2506 L0,3.6456 L3.146638,3.6456 C3.508841,3.6456 3.802464,3.35197 3.802464,2.98977 L3.802464,2.9755 C3.837886,1.44797 4.498141,0.68421 5.783228,0.68421 C7.068316,0.68421 7.750516,1.44797 7.829829,2.9755 L7.829829,3.03741 C7.829829,3.3733 8.102124,3.6456 8.438016,3.6456 L8.510986,3.6456 L11.34064,3.6456 L11.34064,5.606672 C9.326023,6.058792 8.318713,7.172401 8.318713,8.947498 C8.318713,10.722595 9.326023,11.875739 11.34064,12.406928 L11.34064,14.9532164 L10.70262,14.9532164 C7.692622,14.9532164 6.070861,14.5355011 4.604194,13.751119 C3.137528,12.966737 1.986479,11.815689 1.202097,10.349022 C0.4177153,8.882355 0,7.260594 0,4.2506 Z" id="path-29"></path>
        <linearGradient x1="23.4294754%" y1="79.4000281%" x2="4821.78604%" y2="79.4000281%" id="linearGradient-31">
            <stop stop-color="#2684FF" offset="0%"></stop>
            <stop stop-color="#0748A7" offset="100%"></stop>
        </linearGradient>
        <linearGradient x1="49.9110898%" y1="50.0000027%" x2="76.5705246%" y2="50.0000027%" id="linearGradient-32">
            <stop stop-color="#2684FF" offset="0%"></stop>
            <stop stop-color="#0748A7" offset="100%"></stop>
        </linearGradient>
    </defs>
    <g id="logo_l_blue" stroke="none" stroke-width="1" fill="none" fill-rule="evenodd">
        <g id="Group-3" transform="translate(34.000000, 2.000000)">
            <mask id="mask-2" fill="white">
                <use xlink:href="#path-1"></use>
            </mask>
            <g id="Clip-2"></g>
            <polygon id="Fill-1" fill="#253858" mask="url(#mask-2)" points="-4.8937 -4.5352 20.1943 -4.5352 20.1943 24.1248 -4.8937 24.1248"></polygon>
        </g>
        <g id="Group-6" transform="translate(52.000000, 2.000000)">
            <mask id="mask-4" fill="white">
                <use xlink:href="#path-3"></use>
            </mask>
            <g id="Clip-5"></g>
            <polygon id="Fill-4" fill="#253858" mask="url(#mask-4)" points="-4.1793 -4.5355 20.4547 -4.5355 20.4547 24.1245 -4.1793 24.1245"></polygon>
        </g>
        <g id="Group-9" transform="translate(70.000000, 2.000000)">
            <mask id="mask-6" fill="white">
                <use xlink:href="#path-5"></use>
            </mask>
            <g id="Clip-8"></g>
            <polygon id="Fill-7" fill="#253858" mask="url(#mask-6)" points="-4.7458 -4.5352 15.6782 -4.5352 15.6782 24.1248 -4.7458 24.1248"></polygon>
        </g>
        <g id="Group-12" transform="translate(84.000000, 2.000000)">
            <mask id="mask-8" fill="white">
                <use xlink:href="#path-7"></use>
            </mask>
            <g id="Clip-11"></g>
            <polygon id="Fill-10" fill="#253858" mask="url(#mask-8)" points="-4.5106 -4.5352 13.4604 -4.5352 13.4604 24.1248 -4.5106 24.1248"></polygon>
        </g>
        <g id="Group-15" transform="translate(95.000000, 2.000000)">
            <mask id="mask-10" fill="white">
                <use xlink:href="#path-9"></use>
            </mask>
            <g id="Clip-14"></g>
            <polygon id="Fill-13" fill="#253858" mask="url(#mask-10)" points="-4.1799 -4.5352 13.3371 -4.5352 13.3371 24.1248 -4.1799 24.1248"></polygon>
        </g>
        <g id="Group-18" transform="translate(106.000000, 2.000000)">
            <mask id="mask-12" fill="white">
                <use xlink:href="#path-11"></use>
            </mask>
            <g id="Clip-17"></g>
            <polygon id="Fill-16" fill="#253858" mask="url(#mask-12)" points="-4.7035 -4.5355 15.2925 -4.5355 15.2925 24.1255 -4.7035 24.1255"></polygon>
        </g>
        <g id="Group-21" transform="translate(118.000000, 2.000000)">
            <mask id="mask-14" fill="white">
                <use xlink:href="#path-13"></use>
            </mask>
            <g id="Clip-20"></g>
            <polygon id="Fill-19" fill="#253858" mask="url(#mask-14)" points="-4.2015 -4.5352 13.7695 -4.5352 13.7695 24.1248 -4.2015 24.1248"></polygon>
        </g>
        <g id="Group-24" transform="translate(130.000000, 2.000000)">
            <mask id="mask-16" fill="white">
                <use xlink:href="#path-15"></use>
            </mask>
            <g id="Clip-23"></g>
            <polygon id="Fill-22" fill="#253858" mask="url(#mask-16)" points="-4.8715 -4.5355 15.1245 -4.5355 15.1245 24.1255 -4.8715 24.1255"></polygon>
        </g>
        <g id="Group-45">
            <g id="Group-29">
                <mask id="mask-18" fill="white">
                    <use xlink:href="#path-17"></use>
                </mask>
                <g id="Clip-26"></g>
                <polygon id="Fill-25" fill="#2684FF" mask="url(#mask-18)" points="-5 -5 19.27188 -5 19.27188 16.340643 -5 16.340643"></polygon>
                <polygon id="Fill-27" fill="url(#linearGradient-19)" mask="url(#mask-18)" points="-5 -5 19.27188 -5 19.27188 16.340643 -5 16.340643"></polygon>
                <polygon id="Fill-28" fill="url(#linearGradient-20)" mask="url(#mask-18)" points="-5 -5 19.27188 -5 19.27188 16.340643 -5 16.340643"></polygon>
            </g>
            <g id="Group-34" transform="translate(12.000000, 0.000000)">
                <mask id="mask-22" fill="white">
                    <use xlink:href="#path-21"></use>
                </mask>
                <g id="Clip-31"></g>
                <polygon id="Fill-30" fill="#2684FF" mask="url(#mask-22)" points="16.97222 -5 16.97222 19.271877 -4.368421 19.271877 -4.368421 -5"></polygon>
                <polygon id="Fill-32" fill="url(#linearGradient-23)" mask="url(#mask-22)" points="16.97222 -5 16.97222 19.271877 -4.368421 19.271877 -4.368421 -5"></polygon>
                <polygon id="Fill-33" fill="url(#linearGradient-24)" mask="url(#mask-22)" points="16.97222 -5 16.97222 19.271877 -4.368421 19.271877 -4.368421 -5"></polygon>
            </g>
            <g id="Group-39" transform="translate(9.000000, 12.000000)">
                <mask id="mask-26" fill="white">
                    <use xlink:href="#path-25"></use>
                </mask>
                <g id="Clip-36"></g>
                <polygon id="Fill-35" fill="#2684FF" mask="url(#mask-26)" points="19.95609 16.972222 -4.315789 16.972222 -4.315789 -4.36842 19.95609 -4.36842"></polygon>
                <polygon id="Fill-37" fill="url(#linearGradient-27)" mask="url(#mask-26)" points="19.95609 16.972222 -4.315789 16.972222 -4.315789 -4.36842 19.95609 -4.36842"></polygon>
                <polygon id="Fill-38" fill="url(#linearGradient-28)" mask="url(#mask-26)" points="19.95609 16.972222 -4.315789 16.972222 -4.315789 -4.36842 19.95609 -4.36842"></polygon>
            </g>
            <g id="Group-44" transform="translate(0.000000, 9.000000)">
                <mask id="mask-30" fill="white">
                    <use xlink:href="#path-29"></use>
                </mask>
                <g id="Clip-41"></g>
                <polygon id="Fill-40" fill="#2684FF" mask="url(#mask-30)" points="-5 19.956087 -5 -4.31579 16.34064 -4.31579 16.34064 19.956087"></polygon>
                <polygon id="Fill-42" fill="url(#linearGradient-31)" mask="url(#mask-30)" points="-5 19.956087 -5 -4.31579 16.34064 -4.31579 16.34064 19.956087"></polygon>
                <polygon id="Fill-43" fill="url(#linearGradient-32)" mask="url(#mask-30)" points="-5 19.956087 -5 -4.31579 16.34064 -4.31579 16.34064 19.956087"></polygon>
            </g>
        </g>
    </g>
</svg>